{
    "Items":
        [
            {
                "name": "food",
                "quantity": 5
            },
            {
                "name": "wood",
                "quantity": 1
            },
            {
                "name": "tool",
                "quantity": 1
            }
        ]
}
