{
    "villagerCount": 60,
    "deathTrigger": -50,
    "maxStatValue": 100,
    "minStatValue": 0,
    "clothingMultiplier": 2,
    "warmthIdleMultiplier": 2,
    "warmthWorkMultiplier": 3,
    "baseStatDelta": -1
}
